{
  "Description": "Make requests to your own ElasticSearch instance",
  "Name": "Kibana Plugin",
  "Category": "Custom",
  "za.co.rauten.streamdeck.kibana.action": {
    "Name": "Action",
    "Tooltip": "This is the only action in this plugin"
  },
  "Localization": {
    "More info": "More info",
    "Message": "Message",
    "Click Me": "Click Me",
    "Button": "Button",
    "More": "More",
    "My name": "My name",
    "My title": "My title",
    "My message": "My message",
    "My button": "My button"
  }
}
